\relax 
\providecommand\hyper@newdestlabel[2]{}
\providecommand\HyperFirstAtBeginDocument{\AtBeginDocument}
\HyperFirstAtBeginDocument{\ifx\hyper@anchor\@undefined
\global\let\oldcontentsline\contentsline
\gdef\contentsline#1#2#3#4{\oldcontentsline{#1}{#2}{#3}}
\global\let\oldnewlabel\newlabel
\gdef\newlabel#1#2{\newlabelxx{#1}#2}
\gdef\newlabelxx#1#2#3#4#5#6{\oldnewlabel{#1}{{#2}{#3}}}
\AtEndDocument{\ifx\hyper@anchor\@undefined
\let\contentsline\oldcontentsline
\let\newlabel\oldnewlabel
\fi}
\fi}
\global\let\hyper@last\relax 
\gdef\HyperFirstAtBeginDocument#1{#1}
\providecommand\HyField@AuxAddToFields[1]{}
\providecommand\HyField@AuxAddToCoFields[2]{}
\citation{protein}
\citation{jssp}
\citation{5G}
\citation{pybullet,roboschool}
\@writefile{toc}{\contentsline {section}{\numberline {I}Introduction}{1}{section.1}\protected@file@percent }
\citation{GAE}
\citation{Lowe}
\citation{Gupta}
\citation{Terry}
\citation{DRLmatters}
\citation{Terry}
\citation{Gupta}
\citation{Gupta}
\citation{Terry}
\citation{Gupta}
\citation{PettingZoo}
\@writefile{toc}{\contentsline {section}{\numberline {II}Related Works}{2}{section.2}\protected@file@percent }
\@writefile{lot}{\contentsline {table}{\numberline {I}{\ignorespaces Summary of Related Works}}{2}{table.1}\protected@file@percent }
\newlabel{t:related}{{I}{2}{Summary of Related Works}{table.1}{}}
\newlabel{t:related@cref}{{[table][1][]I}{[1][2][]2}}
\citation{DRLmatters}
\citation{bipedal}
\citation{PettingZoo}
\citation{RLlib-paper}
\citation{bipedal}
\citation{PettingZoo}
\@writefile{toc}{\contentsline {section}{\numberline {III}Experiments}{3}{section.3}\protected@file@percent }
\@writefile{lof}{\contentsline {figure}{\numberline {1}{\ignorespaces All Walkers Environment Considered in this Project}}{3}{figure.1}\protected@file@percent }
\newlabel{f:allWalkers}{{1}{3}{All Walkers Environment Considered in this Project}{figure.1}{}}
\newlabel{f:allWalkers@cref}{{[figure][1][]1}{[1][3][]3}}
\@writefile{lot}{\contentsline {table}{\numberline {II}{\ignorespaces Comprehensive List of DRL Experiments in This Work}}{3}{table.2}\protected@file@percent }
\newlabel{t:allExp}{{II}{3}{Comprehensive List of DRL Experiments in This Work}{table.2}{}}
\newlabel{t:allExp@cref}{{[table][2][]II}{[1][3][]3}}
\@writefile{lot}{\contentsline {table}{\numberline {III}{\ignorespaces Environment: Basis Single-Walker, BipedalWalker \cite  {bipedal}}}{3}{table.3}\protected@file@percent }
\newlabel{t:singleEnv}{{III}{3}{Environment: Basis Single-Walker, BipedalWalker \cite {bipedal}}{table.3}{}}
\newlabel{t:singleEnv@cref}{{[table][3][]III}{[1][3][]3}}
\@writefile{lot}{\contentsline {table}{\numberline {IV}{\ignorespaces Environment: Multi-Walker Environment from PettingZoo \cite  {PettingZoo}}}{3}{table.4}\protected@file@percent }
\newlabel{t:multiEnv}{{IV}{3}{Environment: Multi-Walker Environment from PettingZoo \cite {PettingZoo}}{table.4}{}}
\newlabel{t:multiEnv@cref}{{[table][4][]IV}{[1][3][]3}}
\citation{RLlib-doc}
\citation{Terry}
\citation{RLlib-paper}
\citation{Terry}
\citation{DRLmatters}
\citation{Terry}
\citation{DRLmatters}
\@writefile{toc}{\contentsline {section}{\numberline {IV}Results \& Discussion}{4}{section.4}\protected@file@percent }
\@writefile{lof}{\contentsline {figure}{\numberline {2}{\ignorespaces Hyperparameter transfer from single-agent multi-agent environment}}{4}{figure.2}\protected@file@percent }
\newlabel{f:transferSA2MA}{{2}{4}{Hyperparameter transfer from single-agent multi-agent environment}{figure.2}{}}
\newlabel{f:transferSA2MA@cref}{{[figure][2][]2}{[1][4][]4}}
\@writefile{lof}{\contentsline {figure}{\numberline {3}{\ignorespaces Finding the most contributed hyperparameter to the performance for the 3-walker environment by changing the parameter one at a time}}{4}{figure.3}\protected@file@percent }
\newlabel{f:findingContribution}{{3}{4}{Finding the most contributed hyperparameter to the performance for the 3-walker environment by changing the parameter one at a time}{figure.3}{}}
\newlabel{f:findingContribution@cref}{{[figure][3][]3}{[1][4][]4}}
\@writefile{lot}{\contentsline {table}{\numberline {V}{\ignorespaces Comparison of PPO hyperparameters among default values of the RLlib implementation, previous works for 3-Walkers\nobreakspace  {}\cite  {Terry}, MuJoCo Walker2d\nobreakspace  {}\cite  {RLlib-paper} and this work}}{4}{table.5}\protected@file@percent }
\newlabel{t:ppo-rllib}{{V}{4}{Comparison of PPO hyperparameters among default values of the RLlib implementation, previous works for 3-Walkers~\cite {Terry}, MuJoCo Walker2d~\cite {RLlib-paper} and this work}{table.5}{}}
\newlabel{t:ppo-rllib@cref}{{[table][5][]V}{[1][4][]4}}
\@writefile{lof}{\contentsline {figure}{\numberline {4}{\ignorespaces Effect of reward clipping on the performance of 1 through 4-walkers environments with reward clipping (a) and without reward clipping (b)}}{4}{figure.4}\protected@file@percent }
\newlabel{f:rewardClipping}{{4}{4}{Effect of reward clipping on the performance of 1 through 4-walkers environments with reward clipping (a) and without reward clipping (b)}{figure.4}{}}
\newlabel{f:rewardClipping@cref}{{[figure][4][]4}{[1][4][]4}}
\citation{CreditAssign}
\citation{PPO}
\citation{PPG}
\@writefile{lof}{\contentsline {figure}{\numberline {5}{\ignorespaces Performance of 3-Walkers environment with various minibatch size and train batch size. Bluish curves present the performances when the sample reuse ratio of 10; greenish curves for the sample reuse ratio of 2}}{5}{figure.5}\protected@file@percent }
\newlabel{f:minibatchVarying}{{5}{5}{Performance of 3-Walkers environment with various minibatch size and train batch size. Bluish curves present the performances when the sample reuse ratio of 10; greenish curves for the sample reuse ratio of 2}{figure.5}{}}
\newlabel{f:minibatchVarying@cref}{{[figure][5][]5}{[1][5][]5}}
\@writefile{lof}{\contentsline {figure}{\numberline {6}{\ignorespaces PPO Algorithm with Optimized Experience Replay Buffer Size and Minibatch Size}}{5}{figure.6}\protected@file@percent }
\newlabel{f:ppo-now}{{6}{5}{PPO Algorithm with Optimized Experience Replay Buffer Size and Minibatch Size}{figure.6}{}}
\newlabel{f:ppo-now@cref}{{[figure][6][]6}{[1][5][]5}}
\citation{DRLmatters}
\citation{Gupta,Terry}
\@writefile{lof}{\contentsline {figure}{\numberline {7}{\ignorespaces Training loss of policy-gradient vs. value-function}}{6}{figure.7}\protected@file@percent }
\newlabel{f:reuseVarying}{{7}{6}{Training loss of policy-gradient vs. value-function}{figure.7}{}}
\newlabel{f:reuseVarying@cref}{{[figure][7][]7}{[1][5][]6}}
\@writefile{lof}{\contentsline {figure}{\numberline {8}{\ignorespaces Varying a node size of two hidden layers in DRL}}{6}{figure.8}\protected@file@percent }
\newlabel{f:NNsize}{{8}{6}{Varying a node size of two hidden layers in DRL}{figure.8}{}}
\newlabel{f:NNsize@cref}{{[figure][8][]8}{[1][6][]6}}
\citation{Gupta}
\citation{Terry}
\@writefile{lof}{\contentsline {figure}{\numberline {9}{\ignorespaces Hyperparameter transfer flow from MA to SA (a); Resulting improvement of performance in SA environment: Walker2d (b) and BipedalWalker (c)}}{7}{figure.9}\protected@file@percent }
\newlabel{f:transferSA2M}{{9}{7}{Hyperparameter transfer flow from MA to SA (a); Resulting improvement of performance in SA environment: Walker2d (b) and BipedalWalker (c)}{figure.9}{}}
\newlabel{f:transferSA2M@cref}{{[figure][9][]9}{[1][6][]7}}
\@writefile{lof}{\contentsline {figure}{\numberline {10}{\ignorespaces Performance Comparison between Parameter Sharing (a) vs. Independent Learning (b) for 1-10 Walkers Environments with fc[100,50] network; Parameter Sharing (c) vs. Independent Learning (d) with fc[400,300] network}}{7}{figure.10}\protected@file@percent }
\newlabel{f:PSvsIL}{{10}{7}{Performance Comparison between Parameter Sharing (a) vs. Independent Learning (b) for 1-10 Walkers Environments with fc[100,50] network; Parameter Sharing (c) vs. Independent Learning (d) with fc[400,300] network}{figure.10}{}}
\newlabel{f:PSvsIL@cref}{{[figure][10][]10}{[1][7][]7}}
\@writefile{lot}{\contentsline {table}{\numberline {VI}{\ignorespaces Comparison of Performance for the 3-Walkers Environment with Other Studies}}{7}{table.6}\protected@file@percent }
\newlabel{t:performance-our}{{VI}{7}{Comparison of Performance for the 3-Walkers Environment with Other Studies}{table.6}{}}
\newlabel{t:performance-our@cref}{{[table][6][]VI}{[1][7][]7}}
\citation{Gupta}
\bibstyle{IEEEtran}
\bibdata{IEEEabrv,IEEEexample}
\bibcite{protein}{1}
\bibcite{jssp}{2}
\bibcite{5G}{3}
\bibcite{GDRL2020}{4}
\bibcite{PPO}{5}
\bibcite{pybullet}{6}
\bibcite{roboschool}{7}
\bibcite{Lowe}{8}
\bibcite{Gupta}{9}
\bibcite{Terry}{10}
\bibcite{RLlib-MA}{11}
\bibcite{bipedal}{12}
\bibcite{RLlib-paper}{13}
\bibcite{RLlib-doc}{14}
\bibcite{PettingZoo}{15}
\bibcite{DRLmatters}{16}
\bibcite{CreditAssign}{17}
\bibcite{PPG}{18}
\bibcite{GAE}{19}
\@writefile{lot}{\contentsline {table}{\numberline {VII}{\ignorespaces Maximum Average Reward in 300K (1-5 Walkers) or 500K (6-8Walkers) Episodes}}{8}{table.7}\protected@file@percent }
\newlabel{t:performance-all}{{VII}{8}{Maximum Average Reward in 300K (1-5 Walkers) or 500K (6-8Walkers) Episodes}{table.7}{}}
\newlabel{t:performance-all@cref}{{[table][7][]VII}{[1][7][]8}}
\@writefile{toc}{\contentsline {section}{\numberline {V}Conclusion \& Future Work}{8}{section.5}\protected@file@percent }
\@writefile{toc}{\contentsline {section}{References}{8}{section*.21}\protected@file@percent }
