\relax 
\citation{DRLbook2020}
\citation{JSSP-DRL}
\citation{JSSP-2000}
\citation{JSSP-AC,JSSP-DRL}
\citation{JSSP-1995a,JSSP-1995b}
\citation{JSSP-AC}
\citation{JSSP-AC}
\bibcite{JSSP-AC}{1}
\bibcite{JSSP-1995a}{2}
\bibcite{JSSP-1995b}{3}
\bibcite{JSSP-2000}{4}
\bibcite{JSSP-DRL}{5}
\bibcite{DRLbook2020}{6}
\bibcite{RLbook}{7}
\@writefile{toc}{\contentsline {section}{\relax \fontsize  {12}{14pt}\selectfont  \textbf  {5. A list of literature references.}}{2}}
\citation{DRLbook2020}
\citation{JSSP-AC}
\citation{JSSP-AC,JSSP-2000,JSSP-DRL}
\citation{DRLbook2020,JSSP-AC}
\citation{DRLbook2020,JSSP-AC}
\citation{JSSP-AC,DRLbook2020}
\citation{JSSP-AC,DRLbook2020}
\@writefile{lot}{\contentsline {table}{\numberline {I}{\ignorespaces Time Schedule for the Thesis Project}}{3}}
\newlabel{t:schedule}{{I}{3}}
\newlabel{cref@t:schedule}{{[table][1][]I}{3}}
