\relax 
\providecommand\hyper@newdestlabel[2]{}
\providecommand\HyperFirstAtBeginDocument{\AtBeginDocument}
\HyperFirstAtBeginDocument{\ifx\hyper@anchor\@undefined
\global\let\oldcontentsline\contentsline
\gdef\contentsline#1#2#3#4{\oldcontentsline{#1}{#2}{#3}}
\global\let\oldnewlabel\newlabel
\gdef\newlabel#1#2{\newlabelxx{#1}#2}
\gdef\newlabelxx#1#2#3#4#5#6{\oldnewlabel{#1}{{#2}{#3}}}
\AtEndDocument{\ifx\hyper@anchor\@undefined
\let\contentsline\oldcontentsline
\let\newlabel\oldnewlabel
\fi}
\fi}
\global\let\hyper@last\relax 
\gdef\HyperFirstAtBeginDocument#1{#1}
\providecommand\HyField@AuxAddToFields[1]{}
\providecommand\HyField@AuxAddToCoFields[2]{}
\citation{2}
\citation{4}
\citation{12}
\citation{15}
\citation{8,20}
\@writefile{toc}{\contentsline {section}{\numberline {I}Introduction}{1}{section.1}\protected@file@percent }
\citation{6}
\citation{21,22}
\citation{3}
\citation{19}
\citation{20}
\citation{8}
\citation{9}
\citation{12}
\citation{9}
\citation{15}
\@writefile{toc}{\contentsline {section}{\numberline {II}Related Works}{2}{section.2}\protected@file@percent }
\citation{16}
\citation{10}
\citation{9}
\citation{12}
\citation{16}
\citation{12}
\citation{16}
\citation{9}
\citation{15}
\citation{13}
\citation{12}
\citation{15}
\citation{14}
\@writefile{toc}{\contentsline {section}{\numberline {III}Experiments}{3}{section.3}\protected@file@percent }
\@writefile{lof}{\contentsline {figure}{\numberline {1}{\ignorespaces All Walkers Environment Considered in this Project}}{3}{figure.1}\protected@file@percent }
\newlabel{f:allWalkers}{{1}{3}{All Walkers Environment Considered in this Project}{figure.1}{}}
\newlabel{f:allWalkers@cref}{{[figure][1][]1}{[1][3][]3}}
\@writefile{lot}{\contentsline {table}{\numberline {I}{\ignorespaces Summary of related works}}{3}{table.1}\protected@file@percent }
\newlabel{t:related}{{I}{3}{Summary of related works}{table.1}{}}
\newlabel{t:related@cref}{{[table][1][]I}{[1][3][]3}}
\@writefile{lot}{\contentsline {table}{\numberline {II}{\ignorespaces Comprehensive list of DRL experiments in this work}}{3}{table.2}\protected@file@percent }
\newlabel{t:allExp}{{II}{3}{Comprehensive list of DRL experiments in this work}{table.2}{}}
\newlabel{t:allExp@cref}{{[table][2][]II}{[1][3][]3}}
\@writefile{lot}{\contentsline {table}{\numberline {III}{\ignorespaces Environment: Multi-Walker Environment from PettingZoo \cite  {15}}}{3}{table.3}\protected@file@percent }
\newlabel{t:multiEnv}{{III}{3}{Environment: Multi-Walker Environment from PettingZoo \cite {15}}{table.3}{}}
\newlabel{t:multiEnv@cref}{{[table][3][]III}{[1][3][]3}}
\citation{10}
\citation{16}
\citation{10}
\citation{11}
\citation{10}
\citation{16}
\citation{17}
\@writefile{toc}{\contentsline {section}{\numberline {IV}Results \& Discussion}{4}{section.4}\protected@file@percent }
\@writefile{lot}{\contentsline {table}{\numberline {IV}{\ignorespaces Comparison of PPO hyperparameters among default values of the RLlib implementation, previous works for 3-Walkers\nobreakspace  {}\cite  {10}, MuJoCo Walker2d\nobreakspace  {}\cite  {11} and this work}}{4}{table.4}\protected@file@percent }
\newlabel{t:ppo-rllib}{{IV}{4}{Comparison of PPO hyperparameters among default values of the RLlib implementation, previous works for 3-Walkers~\cite {10}, MuJoCo Walker2d~\cite {11} and this work}{table.4}{}}
\newlabel{t:ppo-rllib@cref}{{[table][4][]IV}{[1][4][]4}}
\@writefile{lof}{\contentsline {figure}{\numberline {2}{\ignorespaces Finding the most contributed hyperparameter to the performance for the 3-walker environment by changing the parameter one at a time}}{4}{figure.2}\protected@file@percent }
\newlabel{f:findingContribution}{{2}{4}{Finding the most contributed hyperparameter to the performance for the 3-walker environment by changing the parameter one at a time}{figure.2}{}}
\newlabel{f:findingContribution@cref}{{[figure][2][]2}{[1][4][]4}}
\@writefile{lof}{\contentsline {figure}{\numberline {3}{\ignorespaces Effect of reward clipping on the performance of 1 through 4-walkers environments with reward clipping (a) and without reward clipping (b)}}{4}{figure.3}\protected@file@percent }
\newlabel{f:rewardClipping}{{3}{4}{Effect of reward clipping on the performance of 1 through 4-walkers environments with reward clipping (a) and without reward clipping (b)}{figure.3}{}}
\newlabel{f:rewardClipping@cref}{{[figure][3][]3}{[1][4][]4}}
\citation{5}
\citation{18}
\citation{21}
\citation{16}
\citation{9,10}
\@writefile{lof}{\contentsline {figure}{\numberline {4}{\ignorespaces Performance of 3-Walkers environment with various minibatch size and train batch size. Bluish curves present the performances when the sample reuse ratio of 10; greenish curves for the sample reuse ratio of 2}}{5}{figure.4}\protected@file@percent }
\newlabel{f:minibatchVarying}{{4}{5}{Performance of 3-Walkers environment with various minibatch size and train batch size. Bluish curves present the performances when the sample reuse ratio of 10; greenish curves for the sample reuse ratio of 2}{figure.4}{}}
\newlabel{f:minibatchVarying@cref}{{[figure][4][]4}{[1][4][]5}}
\@writefile{lof}{\contentsline {figure}{\numberline {5}{\ignorespaces PPO Algorithm with Optimized Experience Replay Buffer Size and Minibatch Size}}{5}{figure.5}\protected@file@percent }
\newlabel{f:ppo-now}{{5}{5}{PPO Algorithm with Optimized Experience Replay Buffer Size and Minibatch Size}{figure.5}{}}
\newlabel{f:ppo-now@cref}{{[figure][5][]5}{[1][5][]5}}
\@writefile{lof}{\contentsline {figure}{\numberline {6}{\ignorespaces Training loss of policy-gradient vs. value-function}}{6}{figure.6}\protected@file@percent }
\newlabel{f:reuseVarying}{{6}{6}{Training loss of policy-gradient vs. value-function}{figure.6}{}}
\newlabel{f:reuseVarying@cref}{{[figure][6][]6}{[1][5][]6}}
\@writefile{lof}{\contentsline {figure}{\numberline {7}{\ignorespaces Varying a node size of two hidden layers in DRL}}{6}{figure.7}\protected@file@percent }
\newlabel{f:NNsize}{{7}{6}{Varying a node size of two hidden layers in DRL}{figure.7}{}}
\newlabel{f:NNsize@cref}{{[figure][7][]7}{[1][6][]6}}
\@writefile{lof}{\contentsline {figure}{\numberline {8}{\ignorespaces Hyperparameter transfer flow from MA to SA (a); Resulting improvement of performance in SA environment: Walker2d (b) and BipedalWalker (c)}}{6}{figure.8}\protected@file@percent }
\newlabel{f:transferSA2M}{{8}{6}{Hyperparameter transfer flow from MA to SA (a); Resulting improvement of performance in SA environment: Walker2d (b) and BipedalWalker (c)}{figure.8}{}}
\newlabel{f:transferSA2M@cref}{{[figure][8][]8}{[1][6][]6}}
\citation{9}
\citation{10}
\citation{9}
\bibcite{2}{1}
\@writefile{lof}{\contentsline {figure}{\numberline {9}{\ignorespaces Performance Comparison between Parameter Sharing (a) vs. Independent Learning (b) for 1-10 Walkers Environments with fc[100,50] network; Parameter Sharing (c) vs. Independent Learning (d) with fc[400,300] network}}{7}{figure.9}\protected@file@percent }
\newlabel{f:PSvsIL}{{9}{7}{Performance Comparison between Parameter Sharing (a) vs. Independent Learning (b) for 1-10 Walkers Environments with fc[100,50] network; Parameter Sharing (c) vs. Independent Learning (d) with fc[400,300] network}{figure.9}{}}
\newlabel{f:PSvsIL@cref}{{[figure][9][]9}{[1][6][]7}}
\@writefile{lot}{\contentsline {table}{\numberline {V}{\ignorespaces Comparison of Performance for the 3-Walkers Environment}}{7}{table.5}\protected@file@percent }
\newlabel{t:performance-our}{{V}{7}{Comparison of Performance for the 3-Walkers Environment}{table.5}{}}
\newlabel{t:performance-our@cref}{{[table][5][]V}{[1][7][]7}}
\@writefile{lot}{\contentsline {table}{\numberline {VI}{\ignorespaces Maximum Average Reward in 300K (1-5 Walkers) or 500K (6-8Walkers) Episodes}}{7}{table.6}\protected@file@percent }
\newlabel{t:performance-all}{{VI}{7}{Maximum Average Reward in 300K (1-5 Walkers) or 500K (6-8Walkers) Episodes}{table.6}{}}
\newlabel{t:performance-all@cref}{{[table][6][]VI}{[1][7][]7}}
\@writefile{toc}{\contentsline {section}{\numberline {V}Conclusion \& Future Work}{7}{section.5}\protected@file@percent }
\bibcite{3}{2}
\bibcite{4}{3}
\bibcite{5}{4}
\bibcite{6}{5}
\bibcite{8}{6}
\bibcite{9}{7}
\bibcite{10}{8}
\bibcite{11}{9}
\bibcite{12}{10}
\bibcite{13}{11}
\bibcite{14}{12}
\bibcite{15}{13}
\bibcite{16}{14}
\bibcite{17}{15}
\bibcite{18}{16}
\bibcite{19}{17}
\bibcite{20}{18}
\bibcite{21}{19}
\bibcite{22}{20}
\@writefile{toc}{\contentsline {section}{References}{8}{section*.18}\protected@file@percent }
