\relax 
\providecommand\hyper@newdestlabel[2]{}
\providecommand\HyperFirstAtBeginDocument{\AtBeginDocument}
\HyperFirstAtBeginDocument{\ifx\hyper@anchor\@undefined
\global\let\oldcontentsline\contentsline
\gdef\contentsline#1#2#3#4{\oldcontentsline{#1}{#2}{#3}}
\global\let\oldnewlabel\newlabel
\gdef\newlabel#1#2{\newlabelxx{#1}#2}
\gdef\newlabelxx#1#2#3#4#5#6{\oldnewlabel{#1}{{#2}{#3}}}
\AtEndDocument{\ifx\hyper@anchor\@undefined
\let\contentsline\oldcontentsline
\let\newlabel\oldnewlabel
\fi}
\fi}
\global\let\hyper@last\relax 
\gdef\HyperFirstAtBeginDocument#1{#1}
\providecommand\HyField@AuxAddToFields[1]{}
\providecommand\HyField@AuxAddToCoFields[2]{}
\citation{1}
\citation{3}
\citation{10}
\citation{13}
\citation{6,18}
\citation{5}
\citation{19,20}
\citation{2}
\citation{17}
\@writefile{toc}{\contentsline {section}{\numberline {I}Introduction}{1}{section.1}\protected@file@percent }
\@writefile{toc}{\contentsline {section}{\numberline {II}Related Works}{1}{section.2}\protected@file@percent }
\@writefile{toc}{\contentsline {subsection}{\numberline {\mbox  {II-A}}Proximal Policy Optimization (PPO)}{1}{subsection.2.1}\protected@file@percent }
\citation{18}
\citation{6}
\citation{7}
\citation{10}
\citation{7}
\citation{8}
\citation{13}
\citation{12}
\citation{16}
\citation{12}
\citation{16}
\citation{14}
\citation{8}
\citation{7}
\citation{11}
\citation{10}
\citation{13}
\@writefile{toc}{\contentsline {subsection}{\numberline {\mbox  {II-B}}Centralized Learning with Decentralized Execution}{2}{subsection.2.2}\protected@file@percent }
\@writefile{toc}{\contentsline {subsection}{\numberline {\mbox  {II-C}}Previous study on multi-walker environment}{2}{subsection.2.3}\protected@file@percent }
\@writefile{toc}{\contentsline {subsection}{\numberline {\mbox  {II-D}}Independent Learning vs. Parameter Sharing}{2}{subsection.2.4}\protected@file@percent }
\@writefile{toc}{\contentsline {section}{\numberline {III}Experiments}{2}{section.3}\protected@file@percent }
\@writefile{toc}{\contentsline {subsection}{\numberline {\mbox  {III-A}}Environments}{2}{subsection.3.1}\protected@file@percent }
\@writefile{lof}{\contentsline {figure}{\numberline {1}{\ignorespaces All walkers environment considered in this work}}{2}{figure.1}\protected@file@percent }
\newlabel{f:allWalkers}{{1}{2}{All walkers environment considered in this work}{figure.1}{}}
\newlabel{f:allWalkers@cref}{{[figure][1][]1}{[1][2][]2}}
\@writefile{lot}{\contentsline {table}{\numberline {I}{\ignorespaces Summary of related works}}{2}{table.1}\protected@file@percent }
\newlabel{t:related}{{I}{2}{Summary of related works}{table.1}{}}
\newlabel{t:related@cref}{{[table][1][]I}{[1][2][]2}}
\citation{8}
\citation{14}
\citation{8}
\citation{14}
\citation{15}
\@writefile{lot}{\contentsline {table}{\numberline {II}{\ignorespaces Comprehensive list of DRL experiments}}{3}{table.2}\protected@file@percent }
\newlabel{t:allExp}{{II}{3}{Comprehensive list of DRL experiments}{table.2}{}}
\newlabel{t:allExp@cref}{{[table][2][]II}{[1][2][]3}}
\@writefile{toc}{\contentsline {subsection}{\numberline {\mbox  {III-B}}MADRL Framework and Agents/Policies}{3}{subsection.3.2}\protected@file@percent }
\@writefile{toc}{\contentsline {section}{\numberline {IV}Results \& Discussion}{3}{section.4}\protected@file@percent }
\@writefile{toc}{\contentsline {subsection}{\numberline {\mbox  {IV-A}}Synergic Effect of Combined Optimal Hyperparameters Improves the Performance}{3}{subsection.4.1}\protected@file@percent }
\@writefile{lof}{\contentsline {figure}{\numberline {2}{\ignorespaces Finding the most contributed hyperparameter to the performance for the 3-walker environment by changing the parameter one at a time}}{3}{figure.2}\protected@file@percent }
\newlabel{f:findingContribution}{{2}{3}{Finding the most contributed hyperparameter to the performance for the 3-walker environment by changing the parameter one at a time}{figure.2}{}}
\newlabel{f:findingContribution@cref}{{[figure][2][]2}{[1][3][]3}}
\@writefile{lof}{\contentsline {figure}{\numberline {3}{\ignorespaces Effect of reward clipping on the performance of 1 through 4-walkers environments with reward clipping (a) and without reward clipping (b)}}{3}{figure.3}\protected@file@percent }
\newlabel{f:rewardClipping}{{3}{3}{Effect of reward clipping on the performance of 1 through 4-walkers environments with reward clipping (a) and without reward clipping (b)}{figure.3}{}}
\newlabel{f:rewardClipping@cref}{{[figure][3][]3}{[1][3][]3}}
\@writefile{lot}{\contentsline {table}{\numberline {III}{\ignorespaces Comparison of PPO hyperparameters among default values of the RLlib implementation, previous works for 3-Walkers\nobreakspace  {}\cite  {8}, Walker2d\nobreakspace  {}\cite  {14} and 1-10 Walkers (this work)}}{3}{table.3}\protected@file@percent }
\newlabel{t:ppo-rllib}{{III}{3}{Comparison of PPO hyperparameters among default values of the RLlib implementation, previous works for 3-Walkers~\cite {8}, Walker2d~\cite {14} and 1-10 Walkers (this work)}{table.3}{}}
\newlabel{t:ppo-rllib@cref}{{[table][3][]III}{[1][3][]3}}
\@writefile{toc}{\contentsline {subsection}{\numberline {\mbox  {IV-B}}Reward Shaping is Crucial for Proper Goal Setting in DRL}{3}{subsection.4.2}\protected@file@percent }
\citation{4}
\citation{16}
\citation{19}
\citation{14}
\citation{7,8}
\@writefile{toc}{\contentsline {subsection}{\numberline {\mbox  {IV-C}}Optimal Minibatch Size and Sampling Reuse Ratio are Important Hyperparameters of PPO to Improve the Performance}{4}{subsection.4.3}\protected@file@percent }
\@writefile{lof}{\contentsline {figure}{\numberline {4}{\ignorespaces Performance of 3-walkers environment with various minibatch size and train batch size. Bluish curves present the performances when the sample reuse ratio of 10; greenish curves for the sample reuse ratio of 2}}{4}{figure.4}\protected@file@percent }
\newlabel{f:minibatchVarying}{{4}{4}{Performance of 3-walkers environment with various minibatch size and train batch size. Bluish curves present the performances when the sample reuse ratio of 10; greenish curves for the sample reuse ratio of 2}{figure.4}{}}
\newlabel{f:minibatchVarying@cref}{{[figure][4][]4}{[1][4][]4}}
\@writefile{lof}{\contentsline {figure}{\numberline {5}{\ignorespaces PPO algorithm with optimized experience replay buffer size and minibatch size}}{4}{figure.5}\protected@file@percent }
\newlabel{f:ppo-now}{{5}{4}{PPO algorithm with optimized experience replay buffer size and minibatch size}{figure.5}{}}
\newlabel{f:ppo-now@cref}{{[figure][5][]5}{[1][4][]4}}
\citation{7}
\citation{8}
\@writefile{lof}{\contentsline {figure}{\numberline {6}{\ignorespaces Training loss of policy-gradient vs. value-function}}{5}{figure.6}\protected@file@percent }
\newlabel{f:loss}{{6}{5}{Training loss of policy-gradient vs. value-function}{figure.6}{}}
\newlabel{f:loss@cref}{{[figure][6][]6}{[1][4][]5}}
\@writefile{lof}{\contentsline {figure}{\numberline {7}{\ignorespaces Varying a node size of two hidden layers in DRL}}{5}{figure.7}\protected@file@percent }
\newlabel{f:NNsize}{{7}{5}{Varying a node size of two hidden layers in DRL}{figure.7}{}}
\newlabel{f:NNsize@cref}{{[figure][7][]7}{[1][4][]5}}
\@writefile{toc}{\contentsline {subsection}{\numberline {\mbox  {IV-D}}Larger Capacity of Neural Network is Better for More Number of Multi-Agent Environment}{5}{subsection.4.4}\protected@file@percent }
\@writefile{toc}{\contentsline {subsection}{\numberline {\mbox  {IV-E}}Parameter Sharing is More Efficient Strategy than Fully Independent Learning in Multi-Agent DRL}{5}{subsection.4.5}\protected@file@percent }
\@writefile{lot}{\contentsline {table}{\numberline {IV}{\ignorespaces Comparison of Performance for the 3-Walkers Environment}}{5}{table.4}\protected@file@percent }
\newlabel{t:performance-our}{{IV}{5}{Comparison of Performance for the 3-Walkers Environment}{table.4}{}}
\newlabel{t:performance-our@cref}{{[table][4][]IV}{[1][5][]5}}
\bibcite{1}{1}
\bibcite{2}{2}
\bibcite{3}{3}
\bibcite{4}{4}
\bibcite{5}{5}
\bibcite{6}{6}
\bibcite{7}{7}
\bibcite{8}{8}
\bibcite{9}{9}
\bibcite{10}{10}
\bibcite{11}{11}
\bibcite{12}{12}
\bibcite{13}{13}
\bibcite{14}{14}
\bibcite{15}{15}
\bibcite{16}{16}
\bibcite{17}{17}
\bibcite{18}{18}
\bibcite{19}{19}
\bibcite{20}{20}
\@writefile{lof}{\contentsline {figure}{\numberline {8}{\ignorespaces Performance comparison between parameter sharing (a) vs. independent learning (b) for 1-10 walkers environments with fc[100,50] network; parameter sharing (c) vs. independent learning (d) with fc[400,300] network}}{6}{figure.8}\protected@file@percent }
\newlabel{f:PSvsIL}{{8}{6}{Performance comparison between parameter sharing (a) vs. independent learning (b) for 1-10 walkers environments with fc[100,50] network; parameter sharing (c) vs. independent learning (d) with fc[400,300] network}{figure.8}{}}
\newlabel{f:PSvsIL@cref}{{[figure][8][]8}{[1][5][]6}}
\@writefile{lot}{\contentsline {table}{\numberline {V}{\ignorespaces Maximum average reward in 300K (1-5 walkers) or 500K (6-8 walkers) episodes}}{6}{table.5}\protected@file@percent }
\newlabel{t:performance-all}{{V}{6}{Maximum average reward in 300K (1-5 walkers) or 500K (6-8 walkers) episodes}{table.5}{}}
\newlabel{t:performance-all@cref}{{[table][5][]V}{[1][5][]6}}
\@writefile{toc}{\contentsline {section}{\numberline {V}Conclusion \& Future Work}{6}{section.5}\protected@file@percent }
\@writefile{toc}{\contentsline {section}{References}{6}{section*.1}\protected@file@percent }
