\relax 
\citation{2}
\citation{3}
\@writefile{toc}{\contentsline {title}{Multi-Agent Deep Reinforcement Learning for Walker Systems}{1}\protected@file@percent }
\@writefile{toc}{\authcount {2}}
\@writefile{toc}{\contentsline {author}{Inhee Park \and Teng-Sheng Moh}{1}\protected@file@percent }
\@writefile{toc}{\contentsline {section}{\numberline {1}Introduction}{1}\protected@file@percent }
\@writefile{toc}{\contentsline {subsubsection}{DRL as an AI method:}{1}\protected@file@percent }
\@writefile{toc}{\contentsline {subsubsection}{Supervised Learning and Policy-Gradient DRL:}{1}\protected@file@percent }
\citation{4}
\citation{12}
\citation{15}
\citation{8}
\citation{6}
\citation{19}
\@writefile{toc}{\contentsline {subsubsection}{Multi-agent DRL as a Solution to Challenging Problems Solved Cooperatively by Sharing Information:}{2}\protected@file@percent }
\@writefile{toc}{\contentsline {subsubsection}{Why Hyperparameter Tuning Matters in DRL?}{2}\protected@file@percent }
\@writefile{toc}{\contentsline {section}{\numberline {2}Related Works}{2}\protected@file@percent }
\@writefile{toc}{\contentsline {subsubsection}{Proximal Policy Optimization (PPO):}{2}\protected@file@percent }
\citation{8}
\citation{7,9}
\citation{15}
\@writefile{toc}{\contentsline {subsubsection}{Centralized Learning with Decentralized Execution:}{3}\protected@file@percent }
\@writefile{toc}{\contentsline {subsubsection}{Previous study on multi-walker environment and parameter-sharing TRPO:}{3}\protected@file@percent }
\@writefile{toc}{\contentsline {subsubsection}{Previous study on 3-walker environment and parameter-sharing PPO:}{3}\protected@file@percent }
\@writefile{toc}{\contentsline {subsubsection}{Independent Learning vs. Parameter Sharing:}{3}\protected@file@percent }
\citation{16}
\citation{10}
\citation{16}
\@writefile{toc}{\contentsline {section}{\numberline {3}Experiments}{4}\protected@file@percent }
\@writefile{toc}{\contentsline {subsubsection}{Environments:}{4}\protected@file@percent }
\@writefile{lof}{\contentsline {figure}{\numberline {1}{\ignorespaces All Walkers Environment Considered in this Project}}{4}\protected@file@percent }
\newlabel{f:allWalkers}{{1}{4}}
\newlabel{f:allWalkers@cref}{{[figure][1][]1}{[1][4][]4}}
\citation{10}
\citation{11}
\citation{10}
\citation{11}
\citation{10}
\citation{16}
\@writefile{toc}{\contentsline {section}{\numberline {4}Results \& Discussion}{5}\protected@file@percent }
\@writefile{toc}{\contentsline {subsubsection}{Synergic Effect of Combined Optimal Hyperparameters Improves the Performance:}{5}\protected@file@percent }
\@writefile{lot}{\contentsline {table}{\numberline {1}{\ignorespaces Comparison of PPO hyperparameters among default values of the RLlib implementation, previous works for 3-Walkers\nobreakspace  {}\cite  {10}, MuJoCo Walker2d\nobreakspace  {}\cite  {11} and this work}}{5}\protected@file@percent }
\newlabel{t:ppo-rllib}{{1}{5}}
\newlabel{t:ppo-rllib@cref}{{[table][1][]1}{[1][5][]5}}
\@writefile{toc}{\contentsline {subsubsection}{Reward Shaping is Crucial for Proper Goal Setting in DRL:}{5}\protected@file@percent }
\citation{17}
\@writefile{lof}{\contentsline {figure}{\numberline {2}{\ignorespaces Finding the most contributed hyperparameter to the performance for the 3-walker environment by changing the parameter one at a time}}{6}\protected@file@percent }
\newlabel{f:findingContribution}{{2}{6}}
\newlabel{f:findingContribution@cref}{{[figure][2][]2}{[1][5][]6}}
\@writefile{lof}{\contentsline {figure}{\numberline {3}{\ignorespaces Effect of reward clipping on the performance of 1 through 4-walkers environments with reward clipping (a) and without reward clipping (b)}}{6}\protected@file@percent }
\newlabel{f:rewardClipping}{{3}{6}}
\newlabel{f:rewardClipping@cref}{{[figure][3][]3}{[1][5][]6}}
\@writefile{lof}{\contentsline {figure}{\numberline {4}{\ignorespaces Performance of 3-Walkers environment with various minibatch size and train batch size. Bluish curves present the performances when the sample reuse ratio of 10; greenish curves for the sample reuse ratio of 2}}{7}\protected@file@percent }
\newlabel{f:minibatchVarying}{{4}{7}}
\newlabel{f:minibatchVarying@cref}{{[figure][4][]4}{[1][7][]7}}
\@writefile{toc}{\contentsline {subsubsection}{Optimal Minibatch Size and Sampling Reuse Ratio are Important Hyperparameters of PPO to Improve the Performance:}{7}\protected@file@percent }
\citation{5}
\citation{18}
\@writefile{lof}{\contentsline {figure}{\numberline {5}{\ignorespaces PPO Algorithm with Optimized Experience Replay Buffer Size and Minibatch Size}}{8}\protected@file@percent }
\newlabel{f:ppo-now}{{5}{8}}
\newlabel{f:ppo-now@cref}{{[figure][5][]5}{[1][8][]8}}
\citation{16}
\citation{9,10}
\@writefile{toc}{\contentsline {subsubsection}{Larger Capacity of Neural Network is Better for More Number of Multi-Agent Environment:}{9}\protected@file@percent }
\@writefile{lof}{\contentsline {figure}{\numberline {6}{\ignorespaces Training loss of policy-gradient vs. value-function (a); Varying a node size of two hidden layers in DRL (b)}}{9}\protected@file@percent }
\newlabel{f:NNsize}{{6}{9}}
\newlabel{f:NNsize@cref}{{[figure][6][]6}{[1][9][]9}}
\@writefile{lof}{\contentsline {figure}{\numberline {7}{\ignorespaces Performance Comparison between Parameter Sharing (a) vs. Independent Learning (b) for 1-10 Walkers Environments with fc[100,50] network; Parameter Sharing (c) vs. Independent Learning (d) with fc[400,300] network}}{10}\protected@file@percent }
\newlabel{f:PSvsIL}{{7}{10}}
\newlabel{f:PSvsIL@cref}{{[figure][7][]7}{[1][10][]10}}
\@writefile{toc}{\contentsline {subsubsection}{Parameter Sharing is More Efficient Strategy than Fully Independent Learning in Multi-Agent DRL:}{10}\protected@file@percent }
\citation{9}
\citation{10}
\@writefile{lot}{\contentsline {table}{\numberline {2}{\ignorespaces Comparison of Performance for the 3-Walkers Environment}}{11}\protected@file@percent }
\newlabel{t:performance-our}{{2}{11}}
\newlabel{t:performance-our@cref}{{[table][2][]2}{[1][11][]11}}
\@writefile{toc}{\contentsline {section}{\numberline {5}Conclusion \& Future Work}{11}\protected@file@percent }
\bibcite{2}{1}
\bibcite{3}{2}
\bibcite{4}{3}
\bibcite{5}{4}
\bibcite{6}{5}
\bibcite{7}{6}
\bibcite{8}{7}
\bibcite{9}{8}
\bibcite{10}{9}
\bibcite{11}{10}
\bibcite{12}{11}
\bibcite{15}{12}
\bibcite{16}{13}
\bibcite{17}{14}
\bibcite{18}{15}
\bibcite{19}{16}
